wave.vcd
$date
	Fri Dec 22 09:54:54 2017
$end
$version
	Icarus Verilog
$end
$timescale
	100ps
$end
$scope module lorentz_tb $end
$var wire 64 ! z_next [63:0] $end
$var wire 64 " y_next [63:0] $end
$var wire 64 # x_next [63:0] $end
$var reg 1 $ clk $end
$var reg 1 % reset $end
$scope module dut $end
$var wire 1 $ clk $end
$var wire 1 & exception $end
$var wire 1 % reset $end
$var wire 1 ' underflow $end
$var wire 1 ( overflow $end
$var wire 1 ) inexact $end
$var wire 1 * fpu_ready $end
$var wire 64 + fpout [63:0] $end
$var reg 64 , a [63:0] $end
$var reg 64 - b [63:0] $end
$var reg 64 . c [63:0] $end
$var reg 1 / enable_fpu $end
$var reg 3 0 fpu_op [2:0] $end
$var reg 64 1 opa [63:0] $end
$var reg 64 2 opb [63:0] $end
$var reg 2 3 rmode [1:0] $end
$var reg 1 4 rst_fpu $end
$var reg 6 5 state [5:0] $end
$var reg 64 6 temp [63:0] $end
$var reg 64 7 temp1 [63:0] $end
$var reg 64 8 x [63:0] $end
$var reg 64 9 x_next [63:0] $end
$var reg 64 : y [63:0] $end
$var reg 64 ; y_next [63:0] $end
$var reg 64 < z [63:0] $end
$var reg 64 = z_next [63:0] $end
$scope module u1 $end
$var wire 1 > add_enable_0 $end
$var wire 1 ? add_enable_1 $end
$var wire 1 $ clk $end
$var wire 1 / enable $end
$var wire 3 @ fpu_op [2:0] $end
$var wire 64 A opa [63:0] $end
$var wire 64 B opb [63:0] $end
$var wire 2 C rmode [1:0] $end
$var wire 1 4 rst $end
$var wire 1 D sub_enable_0 $end
$var wire 1 E sub_enable_1 $end
$var wire 1 F underflow_0 $end
$var wire 56 G sum_out [55:0] $end
$var wire 1 H sub_sign $end
$var wire 1 I overflow_0 $end
$var wire 64 J out_round [63:0] $end
$var wire 64 K out_except [63:0] $end
$var wire 1 L mul_sign $end
$var wire 56 M mul_out [55:0] $end
$var wire 1 N invalid_0 $end
$var wire 1 O inexact_0 $end
$var wire 12 P exponent_post_round [11:0] $end
$var wire 11 Q exp_sub_out [10:0] $end
$var wire 12 R exp_mul_out [11:0] $end
$var wire 12 S exp_div_out [11:0] $end
$var wire 11 T exp_add_out [10:0] $end
$var wire 1 U exception_0 $end
$var wire 1 V except_enable $end
$var wire 1 W div_sign $end
$var wire 56 X div_out [55:0] $end
$var wire 56 Y diff_out [55:0] $end
$var wire 1 Z count_busy $end
$var wire 1 [ add_sign $end
$var reg 1 \ add_enable $end
$var reg 56 ] addsub_out [55:0] $end
$var reg 1 ^ addsub_sign $end
$var reg 7 _ count_cycles [6:0] $end
$var reg 7 ` count_ready [6:0] $end
$var reg 1 a div_enable $end
$var reg 1 b enable_reg $end
$var reg 1 c enable_reg_1 $end
$var reg 1 d enable_reg_2 $end
$var reg 1 e enable_reg_3 $end
$var reg 1 f exception $end
$var reg 12 g exp_addsub [11:0] $end
$var reg 12 h exponent_round [11:0] $end
$var reg 3 i fpu_op_reg [2:0] $end
$var reg 1 ) inexact $end
$var reg 1 j invalid $end
$var reg 56 k mantissa_round [55:0] $end
$var reg 1 l mul_enable $end
$var reg 1 m op_enable $end
$var reg 64 n opa_reg [63:0] $end
$var reg 64 o opb_reg [63:0] $end
$var reg 64 p out [63:0] $end
$var reg 1 ( overflow $end
$var reg 1 * ready $end
$var reg 1 q ready_0 $end
$var reg 1 r ready_1 $end
$var reg 2 s rmode_reg [1:0] $end
$var reg 1 t sign_round $end
$var reg 1 u sub_enable $end
$var reg 1 ' underflow $end
$scope module u1 $end
$var wire 1 $ clk $end
$var wire 1 \ enable $end
$var wire 64 v opa [63:0] $end
$var wire 64 w opb [63:0] $end
$var wire 1 4 rst $end
$var wire 1 x small_fraction_enable $end
$var wire 1 y small_is_nonzero $end
$var wire 56 z small_shift_2 [55:0] $end
$var wire 1 { sum_overflow $end
$var wire 1 | sum_leading_one $end
$var wire 1 } small_shift_nonzero $end
$var reg 1 ~ denorm_to_norm $end
$var reg 1 !" expa_gt_expb $end
$var reg 11 "" exponent [10:0] $end
$var reg 11 #" exponent_2 [10:0] $end
$var reg 11 $" exponent_a [10:0] $end
$var reg 11 %" exponent_b [10:0] $end
$var reg 11 &" exponent_diff [10:0] $end
$var reg 11 '" exponent_large [10:0] $end
$var reg 11 (" exponent_small [10:0] $end
$var reg 56 )" large_add [55:0] $end
$var reg 1 *" large_is_denorm $end
$var reg 1 +" large_norm_small_denorm $end
$var reg 52 ," mantissa_a [51:0] $end
$var reg 52 -" mantissa_b [51:0] $end
$var reg 52 ." mantissa_large [51:0] $end
$var reg 52 /" mantissa_small [51:0] $end
$var reg 1 [ sign $end
$var reg 56 0" small_add [55:0] $end
$var reg 1 1" small_is_denorm $end
$var reg 56 2" small_shift [55:0] $end
$var reg 56 3" small_shift_3 [55:0] $end
$var reg 56 4" sum [55:0] $end
$var reg 56 5" sum_2 [55:0] $end
$upscope $end
$scope module u2 $end
$var wire 1 $ clk $end
$var wire 1 u enable $end
$var wire 3 6" fpu_op [2:0] $end
$var wire 1 7" in_norm_out_denorm $end
$var wire 64 8" opa [63:0] $end
$var wire 64 9" opb [63:0] $end
$var wire 1 4 rst $end
$var wire 1 :" subtra_fraction_enable $end
$var wire 55 ;" subtra_shift_2 [54:0] $end
$var wire 1 <" subtra_shift_nonzero $end
$var reg 1 =" a_gtet_b $end
$var reg 55 >" diff [54:0] $end
$var reg 55 ?" diff_1 [54:0] $end
$var reg 56 @" diff_2 [55:0] $end
$var reg 7 A" diff_shift [6:0] $end
$var reg 7 B" diff_shift_2 [6:0] $end
$var reg 1 C" diffshift_et_55 $end
$var reg 1 D" diffshift_gt_exponent $end
$var reg 1 E" expa_et_expb $end
$var reg 1 F" expa_gt_expb $end
$var reg 11 G" exponent [10:0] $end
$var reg 11 H" exponent_2 [10:0] $end
$var reg 11 I" exponent_a [10:0] $end
$var reg 11 J" exponent_b [10:0] $end
$var reg 11 K" exponent_diff [10:0] $end
$var reg 11 L" exponent_large [10:0] $end
$var reg 11 M" exponent_small [10:0] $end
$var reg 1 N" large_is_denorm $end
$var reg 1 O" large_norm_small_denorm $end
$var reg 1 P" mana_gtet_manb $end
$var reg 52 Q" mantissa_a [51:0] $end
$var reg 52 R" mantissa_b [51:0] $end
$var reg 52 S" mantissa_large [51:0] $end
$var reg 52 T" mantissa_small [51:0] $end
$var reg 55 U" minuend [54:0] $end
$var reg 1 H sign $end
$var reg 1 V" small_is_denorm $end
$var reg 1 W" small_is_nonzero $end
$var reg 55 X" subtra_shift [54:0] $end
$var reg 55 Y" subtra_shift_3 [54:0] $end
$var reg 55 Z" subtrahend [54:0] $end
$upscope $end
$scope module u3 $end
$var wire 1 $ clk $end
$var wire 1 l enable $end
$var wire 12 [" exponent [11:0] $end
$var wire 64 \" opa [63:0] $end
$var wire 64 ]" opb [63:0] $end
$var wire 1 4 rst $end
$var wire 56 ^" product_7 [55:0] $end
$var reg 1 _" a_is_norm $end
$var reg 1 `" a_is_zero $end
$var reg 1 a" b_is_norm $end
$var reg 1 b" b_is_zero $end
$var reg 12 c" exponent_1 [11:0] $end
$var reg 12 d" exponent_2 [11:0] $end
$var reg 12 e" exponent_3 [11:0] $end
$var reg 12 f" exponent_4 [11:0] $end
$var reg 12 g" exponent_5 [11:0] $end
$var reg 11 h" exponent_a [10:0] $end
$var reg 11 i" exponent_b [10:0] $end
$var reg 1 j" exponent_et_zero $end
$var reg 1 k" exponent_gt_expoffset $end
$var reg 1 l" exponent_gt_prodshift $end
$var reg 12 m" exponent_terms [11:0] $end
$var reg 12 n" exponent_under [11:0] $end
$var reg 1 o" in_zero $end
$var reg 52 p" mantissa_a [51:0] $end
$var reg 52 q" mantissa_b [51:0] $end
$var reg 53 r" mul_a [52:0] $end
$var reg 53 s" mul_b [52:0] $end
$var reg 106 t" product [105:0] $end
$var reg 106 u" product_1 [105:0] $end
$var reg 106 v" product_2 [105:0] $end
$var reg 106 w" product_3 [105:0] $end
$var reg 106 x" product_4 [105:0] $end
$var reg 106 y" product_5 [105:0] $end
$var reg 106 z" product_6 [105:0] $end
$var reg 41 {" product_a [40:0] $end
$var reg 41 |" product_b [40:0] $end
$var reg 41 }" product_c [40:0] $end
$var reg 26 ~" product_d [25:0] $end
$var reg 34 !# product_e [33:0] $end
$var reg 34 "# product_f [33:0] $end
$var reg 36 ## product_g [35:0] $end
$var reg 29 $# product_h [28:0] $end
$var reg 29 %# product_i [28:0] $end
$var reg 31 &# product_j [30:0] $end
$var reg 1 '# product_lsb $end
$var reg 6 (# product_shift [5:0] $end
$var reg 6 )# product_shift_2 [5:0] $end
$var reg 1 L sign $end
$var reg 42 *# sum_0 [41:0] $end
$var reg 36 +# sum_1 [35:0] $end
$var reg 42 ,# sum_2 [41:0] $end
$var reg 36 -# sum_3 [35:0] $end
$var reg 37 .# sum_4 [36:0] $end
$var reg 28 /# sum_5 [27:0] $end
$var reg 30 0# sum_6 [29:0] $end
$var reg 37 1# sum_7 [36:0] $end
$var reg 31 2# sum_8 [30:0] $end
$upscope $end
$scope module u4 $end
$var wire 1 $ clk $end
$var wire 1 a enable $end
$var wire 64 3# opa [63:0] $end
$var wire 64 4# opb [63:0] $end
$var wire 1 4 rst $end
$var wire 1 W sign $end
$var wire 108 5# remainder_a [107:0] $end
$var wire 56 6# remainder_6 [55:0] $end
$var wire 56 7# remainder_5 [55:0] $end
$var wire 56 8# remainder_4 [55:0] $end
$var wire 56 9# remainder_3 [55:0] $end
$var wire 56 :# remainder_2 [55:0] $end
$var wire 56 ;# remainder_1 [55:0] $end
$var wire 1 <# rem_lsb $end
$var wire 1 =# quotient_msb $end
$var wire 56 ># mantissa_7 [55:0] $end
$var wire 52 ?# mantissa_6 [51:0] $end
$var wire 52 @# mantissa_5 [51:0] $end
$var wire 52 A# mantissa_4 [51:0] $end
$var wire 52 B# mantissa_3 [51:0] $end
$var wire 52 C# mantissa_2 [51:0] $end
$var wire 1 D# m_norm $end
$var wire 12 E# exponent_b [11:0] $end
$var wire 12 F# exponent_a [11:0] $end
$var wire 11 G# expon_b [10:0] $end
$var wire 11 H# expon_a [10:0] $end
$var wire 53 I# divisor_denorm [52:0] $end
$var wire 54 J# divisor_1 [53:0] $end
$var wire 53 K# dividend_denorm [52:0] $end
$var wire 54 L# dividend_1 [53:0] $end
$var wire 1 M# count_nonzero $end
$var wire 6 N# count_index [5:0] $end
$var wire 1 O# b_is_norm $end
$var wire 1 P# a_is_zero $end
$var wire 1 Q# a_is_norm $end
$var reg 1 R# count_nonzero_reg $end
$var reg 1 S# count_nonzero_reg_2 $end
$var reg 6 T# count_out [5:0] $end
$var reg 52 U# dividend_a [51:0] $end
$var reg 52 V# dividend_a_shifted [51:0] $end
$var reg 54 W# dividend_reg [53:0] $end
$var reg 6 X# dividend_shift [5:0] $end
$var reg 6 Y# dividend_shift_2 [5:0] $end
$var reg 52 Z# divisor_b [51:0] $end
$var reg 52 [# divisor_b_shifted [51:0] $end
$var reg 54 \# divisor_reg [53:0] $end
$var reg 6 ]# divisor_shift [5:0] $end
$var reg 6 ^# divisor_shift_2 [5:0] $end
$var reg 1 _# enable_reg $end
$var reg 1 `# enable_reg_2 $end
$var reg 1 a# enable_reg_a $end
$var reg 1 b# enable_reg_b $end
$var reg 1 c# enable_reg_c $end
$var reg 1 d# enable_reg_d $end
$var reg 1 e# enable_reg_e $end
$var reg 12 f# expon_final_1 [11:0] $end
$var reg 12 g# expon_final_2 [11:0] $end
$var reg 12 h# expon_final_3 [11:0] $end
$var reg 12 i# expon_final_4 [11:0] $end
$var reg 1 j# expon_final_4_et0 $end
$var reg 1 k# expon_final_4_term $end
$var reg 12 l# expon_final_5 [11:0] $end
$var reg 12 m# expon_shift_a [11:0] $end
$var reg 12 n# expon_shift_b [11:0] $end
$var reg 12 o# expon_term [11:0] $end
$var reg 1 p# expon_uf_1 $end
$var reg 1 q# expon_uf_2 $end
$var reg 1 r# expon_uf_gt_maxshift $end
$var reg 12 s# expon_uf_term_1 [11:0] $end
$var reg 12 t# expon_uf_term_2 [11:0] $end
$var reg 12 u# expon_uf_term_3 [11:0] $end
$var reg 12 v# expon_uf_term_4 [11:0] $end
$var reg 12 w# exponent_out [11:0] $end
$var reg 52 x# mantissa_1 [51:0] $end
$var reg 52 y# mantissa_a [51:0] $end
$var reg 52 z# mantissa_b [51:0] $end
$var reg 54 {# quotient [53:0] $end
$var reg 54 |# quotient_out [53:0] $end
$var reg 54 }# remainder [53:0] $end
$var reg 108 ~# remainder_b [107:0] $end
$var reg 1 !$ remainder_msb $end
$var reg 54 "$ remainder_out [53:0] $end
$var reg 7 #$ remainder_shift_term [6:0] $end
$upscope $end
$scope module u5 $end
$var wire 1 $ clk $end
$var wire 1 m enable $end
$var wire 12 $$ exponent_term [11:0] $end
$var wire 56 %$ mantissa_term [55:0] $end
$var wire 2 &$ round_mode [1:0] $end
$var wire 1 '$ round_nearest_trigger $end
$var wire 1 ($ round_to_neg_inf_trigger $end
$var wire 1 )$ round_to_pos_inf_trigger $end
$var wire 1 *$ round_trigger $end
$var wire 56 +$ rounding_amount [55:0] $end
$var wire 1 4 rst $end
$var wire 1 t sign_term $end
$var wire 1 ,$ sum_round_overflow $end
$var wire 1 -$ round_to_zero $end
$var wire 1 .$ round_to_pos_inf $end
$var wire 1 /$ round_to_neg_inf $end
$var wire 1 0$ round_nearest $end
$var reg 12 1$ exponent_final [11:0] $end
$var reg 12 2$ exponent_round [11:0] $end
$var reg 64 3$ round_out [63:0] $end
$var reg 56 4$ sum_final [55:0] $end
$var reg 56 5$ sum_round [55:0] $end
$var reg 56 6$ sum_round_2 [55:0] $end
$upscope $end
$scope module u6 $end
$var wire 1 $ clk $end
$var wire 1 m enable $end
$var wire 11 7$ exp_2046 [10:0] $end
$var wire 11 8$ exp_2047 [10:0] $end
$var wire 12 9$ exponent_in [11:0] $end
$var wire 3 :$ fpu_op [2:0] $end
$var wire 64 ;$ in_except [63:0] $end
$var wire 2 <$ mantissa_in [1:0] $end
$var wire 52 =$ mantissa_max [51:0] $end
$var wire 64 >$ opa [63:0] $end
$var wire 64 ?$ opb [63:0] $end
$var wire 2 @$ rmode [1:0] $end
$var wire 1 4 rst $end
$var reg 1 A$ NaN_input $end
$var reg 1 B$ NaN_out_trigger $end
$var reg 63 C$ NaN_output [62:0] $end
$var reg 63 D$ NaN_output_0 [62:0] $end
$var reg 1 E$ SNaN_input $end
$var reg 1 F$ SNaN_trigger $end
$var reg 1 G$ a_NaN $end
$var reg 1 H$ add $end
$var reg 1 I$ add_inf $end
$var reg 1 J$ addsub_inf $end
$var reg 1 K$ addsub_inf_invalid $end
$var reg 1 L$ div_0_by_0 $end
$var reg 1 M$ div_by_0 $end
$var reg 1 N$ div_by_inf $end
$var reg 1 O$ div_inf $end
$var reg 1 P$ div_inf_by_inf $end
$var reg 1 Q$ div_uf $end
$var reg 1 R$ divide $end
$var reg 1 S$ enable_trigger $end
$var reg 1 V ex_enable $end
$var reg 1 T$ except_trigger $end
$var reg 1 U exception $end
$var reg 1 U$ in_et_zero $end
$var reg 1 O inexact $end
$var reg 1 V$ inexact_trigger $end
$var reg 63 W$ inf_round_down [62:0] $end
$var reg 1 X$ inf_round_down_trigger $end
$var reg 1 Y$ input_et_zero $end
$var reg 1 N invalid $end
$var reg 1 Z$ invalid_trigger $end
$var reg 1 [$ mul_0_by_inf $end
$var reg 1 \$ mul_inf $end
$var reg 1 ]$ mul_uf $end
$var reg 1 ^$ multiply $end
$var reg 1 _$ opa_QNaN $end
$var reg 1 `$ opa_SNaN $end
$var reg 1 a$ opa_et_zero $end
$var reg 1 b$ opa_inf $end
$var reg 1 c$ opa_neg_inf $end
$var reg 1 d$ opa_pos_inf $end
$var reg 1 e$ opb_QNaN $end
$var reg 1 f$ opb_SNaN $end
$var reg 1 g$ opb_et_zero $end
$var reg 1 h$ opb_inf $end
$var reg 1 i$ opb_neg_inf $end
$var reg 1 j$ opb_pos_inf $end
$var reg 64 k$ out [63:0] $end
$var reg 64 l$ out_0 [63:0] $end
$var reg 64 m$ out_1 [63:0] $end
$var reg 64 n$ out_2 [63:0] $end
$var reg 63 o$ out_inf [62:0] $end
$var reg 1 p$ out_inf_trigger $end
$var reg 1 q$ out_neg_inf $end
$var reg 1 r$ out_pos_inf $end
$var reg 1 I overflow $end
$var reg 1 s$ overflow_trigger $end
$var reg 1 t$ round_nearest $end
$var reg 1 u$ round_to_neg_inf $end
$var reg 1 v$ round_to_pos_inf $end
$var reg 1 w$ round_to_zero $end
$var reg 1 x$ sub_inf $end
$var reg 1 y$ subtract $end
$var reg 1 F underflow $end
$var reg 1 z$ underflow_trigger $end
$upscope $end
$upscope $end
$upscope $end
$upscope $end
$enddefinitions $end
#0
$dumpvars
xz$
xy$
xx$
xw$
xv$
xu$
xt$
xs$
xr$
xq$
xp$
bx o$
bx n$
bx m$
bx l$
bx k$
xj$
xi$
xh$
xg$
xf$
xe$
xd$
xc$
xb$
xa$
x`$
x_$
x^$
x]$
x\$
x[$
xZ$
xY$
xX$
bx W$
xV$
xU$
xT$
xS$
xR$
xQ$
xP$
xO$
xN$
xM$
xL$
xK$
xJ$
xI$
xH$
xG$
xF$
xE$
bx D$
bx C$
xB$
xA$
bx @$
bx ?$
bx >$
b1111111111111111111111111111111111111111111111111111 =$
b0 <$
bx ;$
bx :$
bx 9$
b11111111111 8$
b11111111110 7$
bx 6$
bx 5$
bx 4$
bx 3$
bx 2$
bx 1$
x0$
x/$
x.$
x-$
x,$
b100 +$
0*$
0)$
0($
0'$
bx &$
b0 %$
b0 $$
bx #$
bx "$
x!$
bx ~#
bx }#
bx |#
bx {#
bx z#
bx y#
bx x#
bx w#
bx v#
bx u#
bx t#
bx s#
xr#
xq#
xp#
bx o#
bx n#
bx m#
bx l#
xk#
xj#
bx i#
bx h#
bx g#
bx f#
xe#
xd#
xc#
xb#
xa#
x`#
x_#
bx ^#
bx ]#
bx \#
bx [#
bx Z#
bx Y#
bx X#
bx W#
bx V#
bx U#
bx T#
xS#
xR#
xQ#
xP#
xO#
bx N#
xM#
b0xxxxxxxxxxxxxxxxxxxxxxxxxxxxxxxxxxxxxxxxxxxxxxxxxxxxx L#
bx0 K#
b0xxxxxxxxxxxxxxxxxxxxxxxxxxxxxxxxxxxxxxxxxxxxxxxxxxxxx J#
bx0 I#
bx H#
bx G#
b0xxxxxxxxxxx F#
b0xxxxxxxxxxx E#
xD#
bx C#
bx B#
bx A#
bx @#
bx ?#
b0xxxxxxxxxxxxxxxxxxxxxxxxxxxxxxxxxxxxxxxxxxxxxxxxxxxxxxx >#
x=#
x<#
bx ;#
bx0 :#
bx00 9#
bx0 8#
bx0 7#
bx 6#
bx 5#
bx 4#
bx 3#
bx 2#
bx 1#
bx 0#
bx /#
bx .#
bx -#
bx ,#
bx +#
bx *#
bx )#
bx (#
x'#
bx &#
bx %#
bx $#
bx ##
bx "#
bx !#
bx ~"
bx }"
bx |"
bx {"
bx z"
bx y"
bx x"
bx w"
bx v"
bx u"
bx t"
bx s"
bx r"
bx q"
bx p"
xo"
bx n"
bx m"
xl"
xk"
xj"
bx i"
bx h"
bx g"
bx f"
bx e"
bx d"
bx c"
xb"
xa"
x`"
x_"
b0xxxxxxxxxxxxxxxxxxxxxxxxxxxxxxxxxxxxxxxxxxxxxxxxxxxxxxx ^"
bx ]"
bx \"
b0 ["
bx Z"
bx Y"
bx X"
xW"
xV"
bx U"
bx T"
bx S"
bx R"
bx Q"
xP"
xO"
xN"
bx M"
bx L"
bx K"
bx J"
bx I"
bx H"
bx G"
xF"
xE"
xD"
xC"
bx B"
bx A"
bx @"
bx ?"
bx >"
x="
x<"
b1 ;"
x:"
bx 9"
bx 8"
x7"
bx 6"
bx 5"
bx 4"
bx 3"
bx 2"
x1"
bx 0"
bx /"
bx ."
bx -"
bx ,"
x+"
x*"
bx )"
bx ("
bx '"
bx &"
bx %"
bx $"
bx #"
bx ""
x!"
x~
x}
x|
x{
b1 z
xy
xx
bx w
bx v
xu
0t
bx s
xr
xq
bx p
bx o
bx n
xm
xl
b0 k
xj
bx i
b0 h
b0xxxxxxxxxxx g
xf
xe
xd
xc
xb
xa
bx `
b0 _
x^
bx ]
x\
x[
xZ
bx Y
b0xxxxxxxxxxxxxxxxxxxxxxxxxxxxxxxxxxxxxxxxxxxxxxxxxxxxxxx X
xW
xV
xU
bx T
bx S
bx R
bx Q
bx P
xO
xN
b0xxxxxxxxxxxxxxxxxxxxxxxxxxxxxxxxxxxxxxxxxxxxxxxxxxxxxxx M
xL
bx K
bx J
xI
xH
bx G
xF
xE
xD
bx C
bx B
bx A
bx @
x?
x>
bx =
bx <
bx ;
bx :
bx 9
bx 8
bx 7
bx 6
b0 5
x4
bx 3
bx 2
bx 1
bx 0
x/
bx .
bx -
bx ,
bx +
x*
x)
x(
x'
x&
1%
1$
bx #
bx "
bx !
$end
#100
0$
0%
#200
0,$
b0xxxxxxxxxxxxxxxxxxxxxxxxxxxxxxxxxxxxxxxxxxxxxxxxxxxxxxxxxxxxxxx J
b0xxxxxxxxxxxxxxxxxxxxxxxxxxxxxxxxxxxxxxxxxxxxxxxxxxxxxxxxxxxxxxx 3$
b0xxxxxxxxxxxxxxxxxxxxxxxxxxxxxxxxxxxxxxxxxxxxxxxxxxxxxxxxxxxxxxx ;$
b0 P
b0 1$
b0 9$
b0 4$
b0x 2$
b100 5$
b1 5
0/
b1 0
b1 @
04
b1 3
b1 C
b11111100010111100101111100110000111001111111111101011000001111 <
b11111100101010001101101110001011101011000111000100001100101101 :
b11111100011111011101010001000001001101010101010001110101101001 8
b100000000000101010101010101010101010101010101010101010101010101 .
b100000000111100000000000000000000000000000000000000000000000000 -
b100000000100100000000000000000000000000000000000000000000000000 ,
1$
#300
0$
#400
b0 J
b0 3$
b0 ;$
b0 2$
b100 6$
1b
b10 5
1/
b11111100011111011101010001000001001101010101010001110101101001 2
b11111100011111011101010001000001001101010101010001110101101001 B
b11111100101010001101101110001011101011000111000100001100101101 1
b11111100101010001101101110001011101011000111000100001100101101 A
1$
#500
0$
#600
0c
1$
#700
0$
#800
0d
1$
#900
0$
#1000
0e
1$
#1100
0$
#1200
0a
1$
#1300
0$
#1400
0a#
1$
#1500
0$
#1600
0b#
1$
#1700
0$
#1800
0c#
1$
#1900
0$
#2000
0d#
1$
#2100
0$
#2200
0e#
1$
#2300
0$
#2400
0_#
1$
